{
  "project_info": {
    "project_number": "815747555563",
    "firebase_url": "https://authenticationassignment-80bc4-default-rtdb.firebaseio.com",
    "project_id": "authenticationassignment-80bc4",
    "storage_bucket": "authenticationassignment-80bc4.appspot.com"
  },
  "client": [
    {
      "client_info": {
        "mobilesdk_app_id": "1:815747555563:android:03210a92ae2351bf155eae",
        "android_client_info": {
          "package_name": "com.mbytessolution.trialxcinema"
        }
      },
      "oauth_client": [
        {
          "client_id": "815747555563-6d4l6ara2a128h4evp2uom9jau0rq9pq.apps.googleusercontent.com",
          "client_type": 3
        }
      ],
      "api_key": [
        {
          "current_key": "AIzaSyBR2W-m38JRSXvZWndMdXgK-n_c17vum2I"
        }
      ],
      "services": {
        "appinvite_service": {
          "other_platform_oauth_client": [
            {
              "client_id": "815747555563-6d4l6ara2a128h4evp2uom9jau0rq9pq.apps.googleusercontent.com",
              "client_type": 3
            }
          ]
        }
      }
    }
  ],
  "configuration_version": "1"
}